Jira Issue Check

  8fd675af6624583306e20bec28688b0c9b27cde0 configuration
{
   "author_validator_enabled": false,
   "jira_issue_check_enabled": true,
   "jira_jql": "summary ~ lamb",
   "verbose": false
}
  8fd675af6624583306e20bec28688b0c9b27cde0
    commit message: JIC-2 includes lamb work; jira_jql gives that summary must include the word lamb
    following jql failed to return an issue: id=JIC-2 and summary ~ lamb

