Jira Issue Check

  7850ff5318d9fc62756d9da81c9017c604b28f87 configuration
{
   "author_validator_enabled": false,
   "jira_issue_check_enabled": true,
   "jira_jql": "",
   "verbose": false
}
  commits in push: 82e7d41458d66faba9e2327863919c66bac92cd8 7850ff5318d9fc62756d9da81c9017c604b28f87
  82e7d41458d66faba9e2327863919c66bac92cd8
    commit message: no jira id is given; jira_issue_check_enabled true
    no jira ids were found in the commit message

