Jira Issue Check

  4600bae46acaf535af89e026182474bce501b15c configuration
{
   "author_validator_enabled": false,
   "jira_issue_check_enabled": true,
   "jira_jql": "",
   "verbose": false
}
  commits in push: bc1358a9f4ae3b3fe901e71232856f2ef251361d 4600bae46acaf535af89e026182474bce501b15c
  bc1358a9f4ae3b3fe901e71232856f2ef251361d
    commit message: JIC-22132 JIC-22133
    following jql failed to return an issue: id=JIC-22132
    following jql failed to return an issue: id=JIC-22133

